Spring 2022 RSQA Worksheet
…
# now, we'll only select measurements that were detected meaning non-zero measurements
detectcount <- mydata %>% 
  filter(REMARK_CD != '<') %>% # filter out detects
  filter(RESULT_VA != 'NA') %>% # NAs; note: NA=not measured 
  filter(REMARK_CD != 'NA') %>% 
  group_by(PARM_NM) %>%
  summarise(count=n()) #%>%
  #arrange(desc(count))

detectcount #compare detectcount vs. original data set

## # A tibble: 37 x 2
##    PARM_NM              count
##    <chr>                <int>
##  1 Acephate, wf             1
##  2 AMPA, w,gf<0.7u        130
##  3 Azoxystrobin, bs, dw     3
##  4 Azoxystrobin, wf         1
##  5 Bifenthrin, bs          28
##  6 Boscalid, bs             7
##  7 Carbaryl, wf             1
##  8 Carbendazim, wf          1
##  9 Chlorpyrifos, bs         2
## 10 Cycloate, bs             2
## # ... with 27 more rows

exp_count #we obviously see noticeably more observation in exp_count than detectcount

## # A tibble: 141 x 2
##    PARM_NM                     count
##    <chr>                       <int>
##  1 1,4-Dichlorobenzene, wu         1
##  2 3,4-Dichloroaniline, bs, dw    82
##  3 3,5-Dichloroaniline, bs        82
##  4 Acephate, wf                    1
##  5 Alachlor 2nd amide, bs         82
##  6 Alachlor, bs                   82
##  7 Allethrin, bs, dw              82
##  8 AMPA, w,gf<0.7u               147
##  9 Atrazine, bs                   82
## 10 Atrazine, wu                    1
## # ... with 131 more rows
…
# now that we know the a good portion of our data consist of non-detects, we'll be fitlering them out
mydata_corr <- mydata %>% 
  filter(RESULT_VA != 'NA') %>% # remove NAs
  filter(REMARK_CD != 'NA') %>% 
  mutate(RESULT_CORR = ifelse(REMARK_CD=='<', 0, RESULT_VA)) # we're going to assign non-detects to value 0

# sort detectcount
detectcount <- detectcount[order(detectcount$count, decreasing=T), ]
detectcount

## # A tibble: 37 x 2
##    PARM_NM              count
##    <chr>                <int>
##  1 AMPA, w,gf<0.7u        130
##  2 Glyphosate, w,gf<.7u   120
##  3 Imidacloprid, wf       103
##  4 Myclobutanil, wf        58
##  5 p,p'-DDT, bs            54
##  6 p,p'-DDE, bs            47
##  7 Bifenthrin, bs          28
##  8 p,p'-DDD, bs            26
##  9 Oxadiazon, bs           14
## 10 Oxyfluorfen, bs         11
## # ... with 27 more rows
…
